<?xml version="1.0" encoding="UTF-8" standalone="no"?>
<!-- Created with Inkscape (http://www.inkscape.org/) -->

<svg
   xmlns:dc="http://purl.org/dc/elements/1.1/"
   xmlns:cc="http://creativecommons.org/ns#"
   xmlns:rdf="http://www.w3.org/1999/02/22-rdf-syntax-ns#"
   xmlns:svg="http://www.w3.org/2000/svg"
   xmlns="http://www.w3.org/2000/svg"
   xmlns:sodipodi="http://sodipodi.sourceforge.net/DTD/sodipodi-0.dtd"
   xmlns:inkscape="http://www.inkscape.org/namespaces/inkscape"
   width="210mm"
   height="297mm"
   viewBox="0 0 744.09448819 1052.3622047"
   id="svg2"
   version="1.1"
   inkscape:version="0.91 r13725"
   sodipodi:docname="quicknotesIcons.svg">
  <sodipodi:namedview
     id="base"
     pagecolor="#ffffff"
     bordercolor="#666666"
     borderopacity="1.0"
     inkscape:pageopacity="0.0"
     inkscape:pageshadow="2"
     inkscape:zoom="1.4142136"
     inkscape:cx="56.647843"
     inkscape:cy="303.18638"
     inkscape:document-units="px"
     inkscape:current-layer="svg2"
     showgrid="false"
     inkscape:window-width="1920"
     inkscape:window-height="1023"
     inkscape:window-x="0"
     inkscape:window-y="27"
     inkscape:window-maximized="1" />
  <defs
     id="defs4">
    <inkscape:path-effect
       effect="envelope"
       id="path-effect4163"
       is_visible="true"
       yy="true"
       xx="true"
       bendpath1="m 126.57211,290.8082 96.52007,0.35355"
       bendpath2="m 221.32442,290.10109 19.44543,19.44543"
       bendpath3="m 109.60155,309.54652 131.1683,0"
       bendpath4="m 127.27922,290.10109 -17.67767,19.44543"
       bendpath1-nodetypes="cc"
       bendpath2-nodetypes="cc"
       bendpath4-nodetypes="cc" />
    <inkscape:path-effect
       bendpath4-nodetypes="cc"
       bendpath2-nodetypes="cc"
       bendpath3-nodetypes="cc"
       bendpath4="m 275.85061,318.94943 -55,-42.62624"
       bendpath3="m 222.85061,276.32319 -97,0"
       bendpath2="M 74.850611,318.94943 128.85061,276.32319"
       bendpath1="m 275.85061,318.94943 -200.999999,0"
       xx="true"
       yy="true"
       is_visible="true"
       id="path-effect4148"
       effect="envelope" />
    <inkscape:path-effect
       effect="envelope"
       id="path-effect4144"
       is_visible="true"
       yy="true"
       xx="true"
       bendpath1="m 75,318.31695 201,0"
       bendpath2="M 276,318.31695 222,523.69901"
       bendpath3="m 128,523.69901 97,0"
       bendpath4="m 75,318.31695 55,205.38206"
       bendpath3-nodetypes="cc"
       bendpath2-nodetypes="cc"
       bendpath4-nodetypes="cc" />
  </defs>
  <metadata
     id="metadata7">
    <rdf:RDF>
      <cc:Work
         rdf:about="">
        <dc:format>image/svg+xml</dc:format>
        <dc:type
           rdf:resource="http://purl.org/dc/dcmitype/StillImage" />
        <dc:title />
      </cc:Work>
    </rdf:RDF>
  </metadata>
  <g
     id="layer1"
     inkscape:groupmode="layer"
     inkscape:label="Layer 1" />
  <path
     inkscape:export-ydpi="4.556962"
     inkscape:export-xdpi="4.556962"
     inkscape:connector-curvature="0"
     id="path3813"
     d="m 324.19016,178.54487 c -2.10686,-4.45667 -3.83067,-8.655 -3.83067,-9.32961 0,-0.67462 0.5269,-3.66359 1.17089,-6.64217 0.64399,-2.97857 1.16917,-5.68262 1.16707,-6.00899 -0.003,-0.49966 -3.17595,-1.93699 -13.90297,-6.29839 l -1.49538,-0.608 -3.29914,5.05963 c -1.81453,2.78279 -3.77952,5.51092 -4.36666,6.0625 -0.58713,0.55159 -4.72495,2.30231 -9.19515,3.89049 l -8.12763,2.88761 -2.71338,-2.74932 -2.71339,-2.74931 2.8866,-8.0389 c 1.58764,-4.4214 3.30813,-8.51046 3.82332,-9.08679 0.51519,-0.57633 3.14968,-2.51004 5.85443,-4.29713 2.70475,-1.78709 4.97544,-3.40362 5.04598,-3.59229 0.11445,-0.30611 -5.7532,-14.95582 -6.14865,-15.35127 -0.0884,-0.0884 -2.61274,0.36944 -5.60967,1.01739 -8.03524,1.73727 -7.9912,1.74406 -17.1548,-2.64114 l -7.98096,-3.81924 0,-3.60202 0,-3.60202 7.98096,-3.81924 c 9.1636,-4.3852 9.11956,-4.37842 17.1548,-2.64114 2.99693,0.64795 5.52128,1.10578 5.60967,1.01739 0.39545,-0.39545 6.2631,-15.045161 6.14865,-15.351273 -0.0705,-0.188671 -2.34123,-1.805201 -5.04598,-3.592287 -2.70475,-1.787086 -5.33924,-3.720795 -5.85443,-4.297129 -0.51519,-0.576333 -2.23568,-4.665391 -3.82332,-9.086788 l -2.8866,-8.038905 2.71339,-2.749311 2.71338,-2.749316 8.12763,2.887607 c 4.4702,1.588185 8.60802,3.338903 9.19515,3.890489 0.58714,0.551581 2.55213,3.279713 4.36666,6.062506 l 3.29914,5.059624 1.49538,-0.607999 c 10.72702,-4.361401 13.89975,-5.798729 13.90297,-6.298389 0.002,-0.326372 -0.52308,-3.030417 -1.16707,-6.008992 -0.64399,-2.978574 -1.17089,-5.967547 -1.17089,-6.642165 0,-0.674613 1.72381,-4.872942 3.83067,-9.329615 l 3.83067,-8.103047 3.78009,0.01044 3.78009,0.01045 3.63132,7.689223 c 4.23798,8.973816 4.35136,9.762604 2.55088,17.746689 l -1.14635,5.083388 1.58538,0.662417 c 0.87196,0.364328 4.16485,1.731057 7.31752,3.03718 3.15268,1.306119 5.96566,2.472551 6.25108,2.592075 0.28542,0.119524 1.90388,-1.954031 3.59659,-4.607905 1.69271,-2.653874 3.67264,-5.394221 4.39985,-6.089666 0.89353,-0.854499 3.95712,-2.200587 9.44939,-4.151897 l 8.12719,-2.887447 2.68847,2.660417 2.68847,2.660412 -2.91197,8.188756 c -1.72172,4.841637 -3.36432,8.670257 -4.01865,9.366766 -0.60868,0.647907 -3.2701,2.557163 -5.91426,4.24279 -2.64416,1.685631 -4.80757,3.309987 -4.80757,3.609677 0,0.52807 5.86039,14.737045 6.23108,15.107735 0.10131,0.10131 2.63623,-0.34595 5.63317,-0.9939 2.99693,-0.64796 6.27219,-1.17811 7.27837,-1.17811 1.32087,0 3.99208,1.03466 9.60922,3.72198 l 7.77981,3.72198 0,3.79655 0,3.79655 -7.77981,3.72198 c -5.61714,2.68733 -8.28835,3.72198 -9.60922,3.72198 -1.00618,0 -4.28144,-0.53015 -7.27837,-1.17811 -2.99694,-0.64795 -5.53186,-1.09521 -5.63317,-0.9939 -0.37069,0.37069 -6.23108,14.57967 -6.23108,15.10774 0,0.29969 2.16341,1.92404 4.80757,3.60967 2.64416,1.68563 5.30558,3.59489 5.91426,4.24279 0.65433,0.69651 2.29693,4.52513 4.01865,9.36677 l 2.91197,8.18875 -2.68847,2.66042 -2.68847,2.66041 -8.12719,-2.88745 c -5.49227,-1.9513 -8.55586,-3.29739 -9.44939,-4.15189 -0.72721,-0.69545 -2.70714,-3.4358 -4.39985,-6.08967 -1.69271,-2.65387 -3.31117,-4.72742 -3.59659,-4.6079 -0.28542,0.11952 -3.0984,1.28596 -6.25108,2.59207 -3.15267,1.30612 -6.44556,2.67286 -7.31752,3.03718 l -1.58538,0.66242 1.14635,5.08338 c 1.80048,7.98409 1.6871,8.77288 -2.55088,17.7467 l -3.63132,7.68922 -3.78009,0.0105 -3.78009,0.0104 -3.83067,-8.10305 z m 13.67216,-38.02538 c 8.19978,-1.73725 15.798,-7.71408 19.40241,-15.26213 2.23002,-4.66993 2.90489,-7.59936 2.90489,-12.60944 0,-5.01008 -0.67487,-7.93951 -2.90489,-12.60944 -4.53799,-9.503057 -14.81115,-15.943914 -25.43055,-15.943914 -7.69421,0 -14.47145,2.898435 -20.14273,8.614476 -5.72949,5.774721 -8.32852,11.996908 -8.32852,19.938878 0,7.95174 2.59777,14.16297 8.34688,19.95724 2.90206,2.92485 4.59759,4.19735 7.36865,5.53017 6.15368,2.95981 12.35292,3.74665 18.78386,2.38416 z"
     style="opacity:0.6;fill:#1a1a1a" />
  <g
     id="g3824"
     inkscape:label="Gear8"
     transform="matrix(0.55464078,0,0,0.55464078,139,109.64791)"
     style="fill:none;fill-opacity:1;stroke:#000000;stroke-opacity:1">
    <path
       id="path3826"
       style="fill:none;fill-opacity:1;stroke:#000000;stroke-width:1;stroke-opacity:1"
       d="m 93.37004,-20.02355 23.61547,-5.06442 7.89195,0.2483 34.04441,16.22949 0,17.22036 -34.04441,16.22949 -7.89195,0.2483 -23.61547,-5.06442 -13.18867,31.84025 20.27976,13.11757 5.40487,5.75603 12.59705,35.54901 -12.17664,12.17664 L 70.7374,105.866 64.98137,100.46113 51.8638,80.18137 20.02355,93.37004 l 5.06442,23.61547 -0.2483,7.89195 -16.22949,34.04441 -17.22036,0 -16.22949,-34.04441 -0.2483,-7.89195 5.06442,-23.61547 -31.84025,-13.18867 -13.11757,20.27976 -5.75603,5.40487 -35.54901,12.59705 -12.17664,-12.17664 12.59705,-35.54901 5.40487,-5.75603 20.27976,-13.11757 -13.18867,-31.84025 -23.61547,5.06442 -7.89195,-0.2483 -34.04441,-16.22949 0,-17.22036 34.04441,-16.22949 7.89195,-0.2483 23.61547,5.06442 13.18867,-31.84025 -20.27976,-13.11757 -5.40487,-5.75603 -12.59705,-35.54901 12.17664,-12.17664 35.54901,12.59705 5.75603,5.40487 13.11757,20.27976 31.84025,-13.18867 -5.06442,-23.61547 0.2483,-7.89195 16.22949,-34.04441 17.22036,0 16.22949,34.04441 0.2483,7.89195 -5.06442,23.61547 31.84025,13.18867 13.11757,-20.27976 5.75603,-5.40487 35.54901,-12.59705 12.17664,12.17664 -12.59705,35.54901 -5.40487,5.75603 -20.27976,13.11757 z"
       inkscape:connector-curvature="0" />
    <circle
       id="path3828"
       style="fill:none;fill-opacity:1;stroke:#000000;stroke-width:1;stroke-opacity:1"
       cx="0"
       cy="0"
       r="60" />
  </g>
  <path
     style="opacity:0.6;fill:none;fill-opacity:1;stroke:#000000;stroke-width:0.40579262;stroke-opacity:1"
     d="m 651.741,52.9297 -39.74102,39.74101 -39.74101,-39.74101 -11.19061,11.19061 39.74101,39.74101 -39.74101,39.74102 11.19061,11.19061 39.74101,-39.74101 39.74102,39.74101 11.19061,-11.19061 L 623.1906,103.86132 662.93161,64.12031 651.741,52.9297 Z"
     id="rect4756"
     inkscape:connector-curvature="0" />
  <path
     style="opacity:0.6;fill:#000000;fill-opacity:1;stroke:#000000;stroke-width:0.23167256;stroke-opacity:1"
     d="m 447.61116,111.48127 0.005,-4.25626 16.0511,-10e-4 16.05109,-0.001 0.001,-16.0527 10e-4,-16.05268 4.25925,0 4.25925,0 -0.001,16.0527 -10e-4,16.0527 16.05699,0.001 16.057,0.001 -0.004,4.34116 -0.004,4.34117 -16.05128,-10e-4 -16.05128,-0.001 -10e-4,15.97044 -0.001,15.97044 -4.258,0.005 -4.258,0.005 -0.001,-15.97392 -10e-4,-15.97392 -15.97217,-0.001 c -8.7847,-6.9e-4 -16.00982,-0.0389 -16.05583,-0.0849 -0.046,-0.046 -0.0815,-1.99896 -0.0789,-4.3399 z"
     id="path4765"
     inkscape:connector-curvature="0"
     inkscape:export-xdpi="5.7730303"
     inkscape:export-ydpi="5.7730303" />
  <path
     style="opacity:1;fill:#666666;fill-opacity:1;stroke:none;stroke-opacity:1"
     d="m 153.8694,691.36133 c -6.60812,0 -11.92802,4.46 -11.92802,10 l 0,8.02539 c 0.39637,-0.0125 0.79266,-0.0254 1.1928,-0.0254 l 22.66325,0 0,-8 c 0,-5.54 -5.31991,-10 -11.92803,-10 z m 11.92803,18 0,42 c 0,5.54 -5.31991,10 -11.92803,10 -6.60812,0 -11.92802,-4.46 -11.92802,-10 l 0,-41.97461 c -16.62307,0.52289 -29.82006,11.90607 -29.82006,25.97461 l 0,225 c 0,14.404 13.83174,26 31.01286,26 l 203.96923,0 c 17.18112,0 31.01285,-11.596 31.01285,-26 l 0,-225 c 0,-14.404 -13.83173,-26 -31.01285,-26 l -3.57842,0 0,42 c 0,5.54 -5.3199,10 -11.92801,10 -6.60814,0 -11.92803,-4.46 -11.92803,-10 l 0,-42 -21.47046,0 0,42 c 0,5.54 -5.31989,10 -11.92801,10 -6.60813,0 -11.92803,-4.46 -11.92803,-10 l 0,-42 -20.27763,0 0,42 c 0,5.54 -5.31991,10 -11.92804,10 -6.60812,0 -11.92802,-4.46 -11.92802,-10 l 0,-42 -19.08483,0 0,42 c 0,5.54 -5.31991,10 -11.92803,10 -6.60812,0 -11.92803,-4.46 -11.92803,-10 l 0,-42 -21.47044,0 z m 21.47044,0 23.85606,0 0,-8 c 0,-5.54 -5.31991,-10 -11.92803,-10 -6.60812,0 -11.92803,4.46 -11.92803,10 l 0,8 z m 42.94089,0 23.85606,0 0,-8 c 0,-5.54 -5.31991,-10 -11.92804,-10 -6.60812,0 -11.92802,4.46 -11.92802,10 l 0,8 z m 44.13369,0 23.85604,0 0,-8 c 0,-5.54 -5.31989,-10 -11.92801,-10 -6.60813,0 -11.92803,4.46 -11.92803,10 l 0,8 z m 45.3265,0 23.85604,0 0,-8 c 0,-5.54 -5.3199,-10 -11.92801,-10 -6.60814,0 -11.92803,4.46 -11.92803,10 l 0,8 z"
     id="rect4139"
     inkscape:export-xdpi="39.050846"
     inkscape:export-ydpi="39.050846"
     inkscape:connector-curvature="0" />
  <path
     style="opacity:1;fill:#808080;fill-opacity:1;stroke:#000000;stroke-width:1.21282041;stroke-opacity:1"
     d="m 305.95484,773.71868 c -0.28928,-0.18631 -0.69375,-0.13274 -0.90691,0.12013 L 169.61722,934.50527 c -0.21317,0.25287 -0.15188,0.60645 0.13741,0.79275 l 0.0109,0.006 -4.58994,13.79708 -4.83866,14.53645 14.44975,-8.3461 13.71355,-7.92073 0.053,0.0342 c 0.28927,0.18633 0.69375,0.13276 0.90691,-0.12011 L 324.89091,786.61908 c 0.21313,-0.25287 0.15186,-0.60645 -0.13742,-0.79276 l -18.79794,-12.10744 z m -7.41621,12.31508 15.20193,9.79132 c 0.28583,0.18409 0.27035,0.62385 -0.034,0.98495 l -0.64776,0.76845 c -0.30436,0.3611 -0.77877,0.50249 -1.0646,0.31841 l -15.20195,-9.79131 c -0.28582,-0.1841 -0.27185,-0.62207 0.0325,-0.98316 l 0.64775,-0.76845 c 0.30438,-0.36109 0.78028,-0.50429 1.06612,-0.32021 z m -4.19012,4.97093 15.20193,9.79131 c 0.28582,0.18408 0.27185,0.62205 -0.0325,0.98314 l -0.64777,0.76845 c -0.30437,0.36111 -0.7803,0.5043 -1.06611,0.3202 l -15.2019,-9.79129 c -0.28583,-0.18411 -0.27035,-0.62386 0.034,-0.98496 l 0.64774,-0.76844 c 0.30437,-0.3611 0.77879,-0.50252 1.06463,-0.31841 z"
     id="rect4157"
     inkscape:connector-curvature="0"
     inkscape:export-xdpi="39.050846"
     inkscape:export-ydpi="39.050846" />
  <path
     style="opacity:0.6;fill:#1a1a1a;fill-opacity:1;stroke:none;stroke-opacity:1"
     d="m 225.38445,319.05859 c -0.0797,0.0246 -0.1962,0.12972 -0.29723,0.27344 -0.79066,1.12476 -96.53538,0.29084 -96.6714,0.0977 -0.1339,-0.19022 -0.29192,-0.31116 -0.35308,-0.26563 -15.33681,11.41798 -34.414558,22.77357 -51.751838,34.07032 -0.08957,-0.002 -0.162288,-0.004 -0.29723,-0.006 l 0,3.75781 c 18.011159,55.35531 37.234738,110.691 53.884308,166.00586 0.0659,0.21885 0.22802,0.34448 0.36306,0.2832 0.20112,-0.0913 96.65303,0.18193 96.18865,-0.0312 0.13246,0.0608 0.28788,-0.0661 0.34909,-0.28516 15.42592,-55.19289 34.68501,-110.36491 52.1548,-165.51757 l 0,-4.24219 c -0.0315,5.6e-4 -0.0639,8e-4 -0.0878,0.002 -17.85827,-11.4408 -36.89101,-22.81973 -53.41553,-34.13867 -0.0164,-0.0112 -0.0393,-0.0124 -0.0658,-0.004 z m -48.54615,10.54297 c 24.49864,0.004 48.92288,0.35711 47.82003,1.1836 0.19953,-0.14953 0.55656,-0.10759 0.78596,0.10351 4.73313,4.35548 12.02999,10.05559 17.92753,14.83203 0.29618,0.23987 0.28139,0.56744 -0.008,0.73438 -0.0177,0.0102 -0.12577,0.0193 -0.16757,0.0293 9.3e-4,0.0136 0.008,0.0252 0.008,0.0391 l 0,22.12695 c 0,0.33427 -0.275,0.60352 -0.6164,0.60352 l -131.65271,0 c -0.3414,0 -0.6164,-0.26925 -0.6164,-0.60352 l 0,-22.12695 c 0,-0.27834 0.19394,-0.50203 0.45483,-0.57227 -0.004,-0.12958 0.0508,-0.26423 0.17953,-0.38086 4.89415,-4.43266 12.35052,-11.04982 16.77651,-14.95312 0.24322,-0.2145 0.62501,-0.25702 0.83782,-0.10547 -0.80104,-0.57046 23.77223,-0.9146 48.27087,-0.91016 z"
     id="rect4141"
     inkscape:connector-curvature="0"
     inkscape:export-xdpi="7"
     inkscape:export-ydpi="7" />
</svg>
